GroupProject
…
df %>%
  group_by(Dates) %>%
  summarise_all(mean)

## # A tibble: 2,056 x 61
##    Dates      GARAN_Price GARAN_Volume SAHOL_Price SAHOL_Volume BIMAS_Price
##    <date>           <dbl>        <dbl>       <dbl>        <dbl>       <dbl>
##  1 2011-01-03        7.98     22313720        7.32      4640420        26.9
##  2 2011-01-04        8.12     33332820        7.34     12339260        27  
##  3 2011-01-05        8.2      29799820        7.3       7083469        27.4
##  4 2011-01-06        8.26     27382040        7.34      7146213        27.4
##  5 2011-01-07        8.18     23034690        7.26      3084847        27.5
##  6 2011-01-10        8.02     24683450        7.08      5862300        27.4
##  7 2011-01-11        7.92     31381250        7.06      7865312        27  
##  8 2011-01-12        7.92     36810000        7.2       6175075        26.8
##  9 2011-01-13        7.98     36274760        7.32      5125464        26.9
## 10 2011-01-14        7.98     24450280        7.18      3897593        26.5
## # ... with 2,046 more rows, and 55 more variables: BIMAS_Volume <dbl>,
## #   ARCLK_Price <dbl>, ARCLK_Volume <dbl>, EREGL_Price <dbl>,
## #   EREGL_Volume <dbl>, YKBNK._Price <dbl>, YKBNK._Volume <dbl>,
## #   TOASO_Price <dbl>, TOASO_Volume <dbl>, TUPRS_Price <dbl>,
## #   TUPRS_Volume <dbl>, KRDMD_Price <dbl>, KRDMD_Volume <dbl>,
## #   TTRAK_Price <dbl>, TTRAK_Volume <dbl>, ASELS_Price <dbl>,
## #   ASELS_Volume <dbl>, IPEKE_Price <dbl>, IPEKE_Volume <dbl>,
## #   KOZAA_Price <dbl>, KOZAA_Volume <dbl>, ASYAB_Price <dbl>,
## #   ASYAB_Volume <dbl>, ENKAI_Price <dbl>, ENKAI_Volume <dbl>,
…
df %>%
  group_by(Dates) %>%
  summarise_all(c("min", "max"))

## # A tibble: 2,056 x 121
##    Dates      GARAN_Price_min GARAN_Volume_min SAHOL_Price_min
##    <date>               <dbl>            <dbl>           <dbl>
##  1 2011-01-03            7.98         22313720            7.32
##  2 2011-01-04            8.12         33332820            7.34
##  3 2011-01-05            8.2          29799820            7.3 
##  4 2011-01-06            8.26         27382040            7.34
##  5 2011-01-07            8.18         23034690            7.26
##  6 2011-01-10            8.02         24683450            7.08
##  7 2011-01-11            7.92         31381250            7.06
##  8 2011-01-12            7.92         36810000            7.2 
##  9 2011-01-13            7.98         36274760            7.32
## 10 2011-01-14            7.98         24450280            7.18
## # ... with 2,046 more rows, and 117 more variables:
## #   SAHOL_Volume_min <dbl>, BIMAS_Price_min <dbl>, BIMAS_Volume_min <dbl>,
## #   ARCLK_Price_min <dbl>, ARCLK_Volume_min <dbl>, EREGL_Price_min <dbl>,
## #   EREGL_Volume_min <dbl>, YKBNK._Price_min <dbl>,
## #   YKBNK._Volume_min <dbl>, TOASO_Price_min <dbl>,
## #   TOASO_Volume_min <dbl>, TUPRS_Price_min <dbl>, TUPRS_Volume_min <dbl>,
## #   KRDMD_Price_min <dbl>, KRDMD_Volume_min <dbl>, TTRAK_Price_min <dbl>,
## #   TTRAK_Volume_min <dbl>, ASELS_Price_min <dbl>, ASELS_Volume_min <dbl>,
## #   IPEKE_Price_min <dbl>, IPEKE_Volume_min <dbl>, KOZAA_Price_min <dbl>,
…
df %>% group_by(Dates) %>% summarise_all(funs(mean))

## # A tibble: 2,056 x 61
##    Dates      GARAN_Price GARAN_Volume SAHOL_Price SAHOL_Volume BIMAS_Price
##    <date>           <dbl>        <dbl>       <dbl>        <dbl>       <dbl>
##  1 2011-01-03        7.98     22313720        7.32      4640420        26.9
##  2 2011-01-04        8.12     33332820        7.34     12339260        27  
##  3 2011-01-05        8.2      29799820        7.3       7083469        27.4
##  4 2011-01-06        8.26     27382040        7.34      7146213        27.4
##  5 2011-01-07        8.18     23034690        7.26      3084847        27.5
##  6 2011-01-10        8.02     24683450        7.08      5862300        27.4
##  7 2011-01-11        7.92     31381250        7.06      7865312        27  
##  8 2011-01-12        7.92     36810000        7.2       6175075        26.8
##  9 2011-01-13        7.98     36274760        7.32      5125464        26.9
## 10 2011-01-14        7.98     24450280        7.18      3897593        26.5
## # ... with 2,046 more rows, and 55 more variables: BIMAS_Volume <dbl>,
## #   ARCLK_Price <dbl>, ARCLK_Volume <dbl>, EREGL_Price <dbl>,
## #   EREGL_Volume <dbl>, YKBNK._Price <dbl>, YKBNK._Volume <dbl>,
## #   TOASO_Price <dbl>, TOASO_Volume <dbl>, TUPRS_Price <dbl>,
## #   TUPRS_Volume <dbl>, KRDMD_Price <dbl>, KRDMD_Volume <dbl>,
## #   TTRAK_Price <dbl>, TTRAK_Volume <dbl>, ASELS_Price <dbl>,
## #   ASELS_Volume <dbl>, IPEKE_Price <dbl>, IPEKE_Volume <dbl>,
## #   KOZAA_Price <dbl>, KOZAA_Volume <dbl>, ASYAB_Price <dbl>,
## #   ASYAB_Volume <dbl>, ENKAI_Price <dbl>, ENKAI_Volume <dbl>,
…
