Emeklilik Data
…
Loading Data

Loading data with read_xlsx.

#setwd("C:\\Users\\STUDENT\\Desktop\\R")
data <- read_xlsx("egmdata.xlsx",1)

First ten row of Data.

data %>%
  tbl_df

## # A tibble: 1,368 x 15
##    date  pension_fund_co~ n_of_participan~ fund_size_parti~
##    <chr> <chr>                       <dbl>            <dbl>
##  1 06.0~ Aegon Emeklilik~            42826        139193651
##  2 06.0~ Allianz Hayat v~           118867       1840701596
##  3 06.0~ Allianz Yaam v~           726684       7387398235
##  4 06.0~ Anadolu Hayat E~          1119572       9975066501
##  5 06.0~ Asya Emeklilik ~           129389        337754079
##  6 06.0~ Avivasa Emeklil~           876894      10550032358
##  7 06.0~ Axa Hayat ve Em~            33327        210804109
##  8 06.0~ BNP Paribas Car~           187289       1545869615
##  9 06.0~ Cigna Finans Em~           122997        564291355
## 10 06.0~ Fiba Emeklilik ~            38754        247746061
## # ... with 1,358 more rows, and 11 more variables: gov_contribution <dbl>,
## #   contribution <dbl>, n_of_pensioners <chr>, n_of_ind_contracts <dbl>,
## #   n_of_group_ind_contracts <chr>,
## #   n_of_employer_group_certificates <chr>, n_total <dbl>,
## #   size_of_ind_contracts <dbl>, size_of_group_ind_contracts <dbl>,
## #   size_of_employer_group_certificates <dbl>, size_total <dbl>
…
data %>%
 mutate(propTotal = size_total / n_total, propFund = fund_size_participants / n_of_participants) %>%
 select(pension_fund_company,propTotal,propFund)%>%
  filter(propTotal + propFund > 30000) %>%

  arrange(desc(propFund))

## # A tibble: 45 x 3
##    pension_fund_company       propTotal propFund
##    <chr>                          <dbl>    <dbl>
##  1 Allianz Hayat ve Emeklilik    13551.   21602.
##  2 Allianz Hayat ve Emeklilik    13503.   21545.
##  3 Allianz Hayat ve Emeklilik    13453.   21420.
##  4 Allianz Hayat ve Emeklilik    13355.   21283.
##  5 Allianz Hayat ve Emeklilik    13405.   21276.
##  6 Allianz Hayat ve Emeklilik    13365.   21248.
##  7 Allianz Hayat ve Emeklilik    13316.   21188.
##  8 Allianz Hayat ve Emeklilik    13163.   21081.
##  9 Allianz Hayat ve Emeklilik    13195.   21078.
## 10 Allianz Hayat ve Emeklilik    13188.   21074.
## # ... with 35 more rows
…
